{
  "project_info": {
    "project_number": "389238000081",
    "firebase_url": "https://morabaasmarthome-d2f51.firebaseio.com",
    "project_id": "morabaasmarthome-d2f51",
    "storage_bucket": "morabaasmarthome-d2f51.appspot.com"
  },
  "client": [
    {
      "client_info": {
        "mobilesdk_app_id": "1:389238000081:android:aa05eeaea9c9fe42",
        "android_client_info": {
          "package_name": "com.morabaa.team.morabaasmarthomecontroller"
        }
      },
      "oauth_client": [
        {
          "client_id": "389238000081-n4p0usnctvc65p85b0hvhph88vc3d7rp.apps.googleusercontent.com",
          "client_type": 1,
          "android_info": {
            "package_name": "com.morabaa.team.morabaasmarthomecontroller",
            "certificate_hash": "70534e10fa97d4dab5cd1566ef1e3b3cc2970771"
          }
        },
        {
          "client_id": "389238000081-vmfcb2cf7hvenlf9764ogvmvuntefmhn.apps.googleusercontent.com",
          "client_type": 3
        }
      ],
      "api_key": [
        {
          "current_key": "AIzaSyDvlK0DVTV9xG09Oj9YF0Vdwz4z3g1fl9k"
        }
      ],
      "services": {
        "analytics_service": {
          "status": 1
        },
        "appinvite_service": {
          "status": 2,
          "other_platform_oauth_client": [
            {
              "client_id": "389238000081-vmfcb2cf7hvenlf9764ogvmvuntefmhn.apps.googleusercontent.com",
              "client_type": 3
            }
          ]
        },
        "ads_service": {
          "status": 2
        }
      }
    },
    {
      "client_info": {
        "mobilesdk_app_id": "1:389238000081:android:e63cd34be7c25b53",
        "android_client_info": {
          "package_name": "team.morabaa.com.myudp"
        }
      },
      "oauth_client": [
        {
          "client_id": "389238000081-vmfcb2cf7hvenlf9764ogvmvuntefmhn.apps.googleusercontent.com",
          "client_type": 3
        }
      ],
      "api_key": [
        {
          "current_key": "AIzaSyDvlK0DVTV9xG09Oj9YF0Vdwz4z3g1fl9k"
        }
      ],
      "services": {
        "analytics_service": {
          "status": 1
        },
        "appinvite_service": {
          "status": 1,
          "other_platform_oauth_client": []
        },
        "ads_service": {
          "status": 2
        }
      }
    }
  ],
  "configuration_version": "1"
}