{
  "DeviceId": "0c8c6982c3a218f5",
  "command": "updateDevice",
  "device": {
    "amperes": 0.0,
    "controllerId": 123,
    "deviceId": 2,
    "iconName": "device_e",
    "id": 123002,
    "name": "إضاءه 2a",
    "priority": 0,
    "roomId": 129,
    "status": 0,
    "type": "single"
  }
}